…
You can get a “snapshot” using `get_snapshots()` that exist for at least
part of the specified period (or the specified day when `start_period` =
`end_period`).

By default, the FSO number is returned. To get the historicized ID, add
`hist_id = TRUE` in the `get_snapshots()` function.

``` r
snapshot <- get_snapshots(start_period = "2024-01-01", end_period = "2024-08-01")

snapshot
```

    ## # A tibble: 2,302 × 34
    ##    Identi…¹ Valid…² ValidTo Level Parent Name_en Name_fr Name_de Name_it ABBRE…³
    ##       <dbl> <chr>   <chr>   <dbl>  <dbl> <chr>   <chr>   <chr>   <chr>   <chr>  
    ##  1        1 12.09.… <NA>        1     NA Zürich  Zürich  Zürich  Zürich  ZH     
    ##  2    10053 12.09.… <NA>        2      1 Bezirk… Bezirk… Bezirk… Bezirk… Affolt…
    ##  3    10575 12.09.… <NA>        3  10053 Stalli… Stalli… Stalli… Stalli… <NA>   
    ##  4    11742 12.09.… <NA>        3  10053 Affolt… Affolt… Affolt… Affolt… <NA>   
    ##  5    11801 12.09.… <NA>        3  10053 Bonste… Bonste… Bonste… Bonste… <NA>   
    ##  6    11992 01.01.… <NA>        3  10053 Hausen… Hausen… Hausen… Hausen… <NA>   
    ##  7    12249 12.09.… <NA>        3  10053 Heding… Heding… Heding… Heding… <NA>   
    ##  8    12433 12.09.… <NA>        3  10053 Mettme… Mettme… Mettme… Mettme… <NA>   
    ##  9    12497 12.09.… <NA>        3  10053 Obfeld… Obfeld… Obfeld… Obfeld… <NA>   
    ## 10    12671 01.01.… <NA>        3  10053 Kappel… Kappel… Kappel… Kappel… <NA>   
    ## # … with 2,292 more rows, 24 more variables: ABBREV_1_Text_fr <chr>,
    ## #   ABBREV_1_Text_de <chr>, ABBREV_1_Text_it <chr>, ABBREV_1_Text <chr>,
    ## #   CODE_OFS_1_Text_en <dbl>, CODE_OFS_1_Text_fr <dbl>,
    ## #   CODE_OFS_1_Text_de <dbl>, CODE_OFS_1_Text_it <dbl>, CODE_OFS_1_Text <dbl>,
    ## #   INSCRIPTION_1_Text_en <dbl>, INSCRIPTION_1_Text_fr <dbl>,
    ## #   INSCRIPTION_1_Text_de <dbl>, INSCRIPTION_1_Text_it <dbl>,
    ## #   INSCRIPTION_1_Text <dbl>, RADIATION_1_Text_en <dbl>, …
…
# consolidate municipality data with districts and cantons levels
municipalities_consolidated <- municipalities |>
  inner_join(districts, by = join_by(Parent_municipality == Identifier_district)) |>
  inner_join(cantons, by = join_by(Parent_district == Identifier_canton)) |>
  rename(Identifier_district = Parent_municipality, Identifier_canton = Parent_district) |>
  arrange(Identifier_municipality, Identifier_district)

# get all municipalities of St. Gallen for the given period
municipalities_consolidated |>
  filter(Name_de_canton == "St. Gallen")
```

    ## # A tibble: 75 × 9
    ##    Code_munici…¹ Ident…² Name_…³ Ident…⁴ Code_…⁵ Name_…⁶ Ident…⁷ Code_…⁸ Name_…⁹
    ##            <dbl>   <dbl> <chr>     <dbl>   <dbl> <chr>     <dbl>   <dbl> <chr>  
    ##  1          3201   14378 Häggen…   10266    1721 Wahlkr…      17      NA St. Ga…
    ##  2          3202   14379 Muolen    10266    1721 Wahlkr…      17      NA St. Ga…
    ##  3          3203   14380 St. Ga…   10266    1721 Wahlkr…      17      NA St. Ga…
    ##  4          3204   14381 Witten…   10266    1721 Wahlkr…      17      NA St. Ga…
    ##  5          3211   14382 Berg (…   10265    1722 Wahlkr…      17      NA St. Ga…
    ##  6          3212   14383 Eggers…   10266    1721 Wahlkr…      17      NA St. Ga…
    ##  7          3213   14384 Goldach   10265    1722 Wahlkr…      17      NA St. Ga…
    ##  8          3214   14385 Mörsch…   10265    1722 Wahlkr…      17      NA St. Ga…
    ##  9          3215   14386 Rorsch…   10265    1722 Wahlkr…      17      NA St. Ga…
    ## 10          3216   14387 Rorsch…   10265    1722 Wahlkr…      17      NA St. Ga…
    ## # … with 65 more rows, and abbreviated variable names ¹​Code_municipality_de,
    ## #   ²​Identifier_municipality, ³​Name_de_municipality, ⁴​Identifier_district,
    ## #   ⁵​Code_district_de, ⁶​Name_de_district, ⁷​Identifier_canton, ⁸​Code_canton_de,
    ## #   ⁹​Name_de_canton
…
The geographical levels offer several classifications of municipalities
according to, for example, linguistic regions, agglomerations or even
the degree of urbanization.

By default, the FSO number is returned. To get the historicized ID, add
`hist_id = TRUE` in the `get_levels()` function. You can change the
`label_languages` between French (“fr”), German (“de”), Italian (“it”)
and English (“en”).

``` r
get_levels(start_period = "2024-01-01", end_period = "2024-08-01", label_languages = "de")
```

    ## # A tibble: 2,133 × 59
    ##    Identifier Name_de    CODE_…¹ HR_HG…² HR_HG…³ HR_HG…⁴ HR_HG…⁵ HR_AG…⁶ HR_AG…⁷
    ##         <dbl> <chr>        <dbl>   <dbl> <chr>     <dbl> <chr>     <dbl> <chr>  
    ##  1      10009 Villnache…    4122      19 Aargau    10023 Bezirk…       0 keine …
    ##  2      10078 Vionnaz       6158      23 Valais…   10013 Distri…       0 keine …
    ##  3      10157 Speicher      3023      15 Appenz…   10098 Bezirk…    3203 St. Ga…
    ##  4      10159 Zwischber…    6011      23 Valais…   10035 Bezirk…    6002 Brig –…
    ##  5      10162 Villars-s…    2228      10 Fribou…   10104 Distri…    2196 Fribou…
    ##  6      10165 Villarsel…    2230      10 Fribou…   10104 Distri…    2196 Fribou…
    ##  7      10242 Wila           181       1 Zürich    10076 Bezirk…       0 keine …
    ##  8      10268 Wil (ZH)        71       1 Zürich    10081 Bezirk…     261 Zürich 
    ##  9      10275 Wettingen     4045      19 Aargau    10025 Bezirk…    4021 Baden …
    ## 10      10277 Wetzikon …     121       1 Zürich    10079 Bezirk…     261 Zürich 
    ## # … with 2,123 more rows, 50 more variables: HR_AGGL2020 <dbl>,
    ## #   HR_AGGL2020_Name_de <chr>, HR_AGGLGK2012_L1 <dbl>,
    ## #   HR_AGGLGK2012_L1_Name_de <chr>, HR_AGGLGK2012_L2 <dbl>,
    ## #   HR_AGGLGK2012_L2_Name_de <chr>, HR_AGGLGK2020_L1 <dbl>,
    ## #   HR_AGGLGK2020_L1_Name_de <chr>, HR_AGGLGK2020_L2 <dbl>,
    ## #   HR_AGGLGK2020_L2_Name_de <chr>, HR_BAE2018_L1 <chr>,
    ## #   HR_BAE2018_L1_Name_de <chr>, HR_BAE2018_L2 <chr>, …
…
